{
  "docs": [
    {
      "createdAt": "2025-07-17T19:54:52.897Z",
      "updatedAt": "2025-07-17T21:19:31.173Z",
      "author": {
        "slug": "patrick-mahinge",
        "name": "Patrick Mahinge",
        "id": "6850b776788b53611ad7ae0d"
      },
      "generateData": false,
      "keyRegulation": [
        {
          "regulation": "Asset Classes",
          "description": "The 25:1 cap applies across currency pairs; Japan does not allow offshore FX or CFDs to domestic retail clients.",
          "id": "687955898bfd726aa1077117"
        }
      ],
      "requirements": {
        "capitalRequirement": {
          "minimumCapital": 5000
        }
      },
      "name": "Financial Services Agency (Japan)",
      "shortName": "JFSA",
      "description": "The Financial Services Agency (FSA) is Japan’s integrated financial regulator responsible for overseeing banking, securities, and insurance sectors to maintain the stability of the country’s financial system and protect investors.",
      "country": "Japan",
      "region": "Asia",
      "established": 2000,
      "keywords": [],
      "maxLeverage": "25:1",
      "minDepositRequirement": 50000000,
      "website": "https://www.fsa.go.jp/",
      "faqs": [],
      "trustScore": 90,
      "brokerRequirements": [],
      "investorProtection": [],
      "pubDate": "2025-07-17T19:53:23.377Z",
      "lastmod": "2025-07-17T19:53:23.377Z",
      "relatedLinks": [],
      "slug": "jfsa-japan",
      "blog": {
        "blogTitle": "Kenya Forex Firm",
        "slug": "kenya-forex-firm",
        "tenant": "683f46937e7deb35fd6bca89",
        "githubBranch": "main",
        "id": "684042e245e28e4550cbd4e6"
      },
      "status": "published",
      "tenant": "683f46937e7deb35fd6bca89",
      "standoutFeatures": [],
      "meta": {},
      "disputeResolution": true,
      "segregatedAccounts": true,
      "leverage": {
        "maxLeverage": "25:1",
        "variableLeverage": false,
        "maxLeverageOnAsset": [],
        "specialRequirements": [
          {
            "requirement": "The 25:1 cap applies across currency pairs; Japan does not allow offshore FX or CFDs to domestic retail clients.",
            "id": "6879638dce8f08a9e0621302"
          }
        ],
        "recentChanges": "The leverage cap in Japan has been 25:1 since 2011. No higher leverage is permitted; this has not changed in the last 5 years.",
        "reference": [
          {
            "url": "https://www.ffaj.or.jp/en/regulation/customers/",
            "id": "687967715515878278428eb7"
          }
        ]
      },
      "id": "6879550cf152d46bea775d8f",
      "regScoreRating": {
        "regulatorTrustScore": [],
        "scoreCard": []
      }
    },
    {
      "createdAt": "2025-07-11T10:30:54.668Z",
      "updatedAt": "2025-07-11T10:31:42.381Z",
      "generateData": false,
      "name": "Jordan Securities Commission (JSC)",
      "shortName": "JSC",
      "description": "The Jordan Securities Commission is the primary financial regulator overseeing securities and forex markets in Jordan, ensuring transparency, investor protection, and market integrity.",
      "country": "Jordan",
      "region": "Middle East",
      "established": 1997,
      "keywords": [],
      "maxLeverage": "1:100",
      "minDepositRequirement": 100000,
      "website": "https://www.jsc.gov.jo",
      "faqs": [],
      "trustScore": 75,
      "brokerRequirements": [],
      "investorProtection": [],
      "pubDate": "2025-07-11T10:30:26.761Z",
      "lastmod": "2025-07-11T10:30:26.761Z",
      "relatedLinks": [],
      "slug": "jsc-jordan",
      "blog": {
        "blogTitle": "Kenya Forex Firm",
        "slug": "kenya-forex-firm",
        "tenant": "683f46937e7deb35fd6bca89",
        "githubBranch": "main",
        "id": "684042e245e28e4550cbd4e6"
      },
      "status": "draft",
      "tenant": "683f46937e7deb35fd6bca89",
      "standoutFeatures": [],
      "meta": {},
      "logo": {
        "createdAt": "2025-07-11T10:31:39.686Z",
        "updatedAt": "2025-07-11T10:31:39.686Z",
        "status": "published",
        "alt": "Jordan Securities Commission (JSC)",
        "blog": "684042e245e28e4550cbd4e6",
        "sizes": {
          "small": {
            "width": 180,
            "height": 180,
            "mimeType": "image/webp",
            "filesize": 10976,
            "filename": "Jordan_Securities_Commission_logo-775.webp",
            "url": "https://ajira.pro.s3.us-east-1.amazonaws.com/media/683f46937e7deb35fd6bca89/images/small/Jordan_Securities_Commission_logo-775.webp"
          },
          "tablet": {
            "width": 180,
            "height": 180,
            "mimeType": "image/webp",
            "filesize": 10976,
            "filename": "Jordan_Securities_Commission_logo-1020.webp",
            "url": "https://ajira.pro.s3.us-east-1.amazonaws.com/media/683f46937e7deb35fd6bca89/images/tablet/Jordan_Securities_Commission_logo-1020.webp"
          },
          "large": {
            "width": 180,
            "height": 180,
            "mimeType": "image/webp",
            "filesize": 10976,
            "filename": "Jordan_Securities_Commission_logo-1627.webp",
            "url": "https://ajira.pro.s3.us-east-1.amazonaws.com/media/683f46937e7deb35fd6bca89/images/large/Jordan_Securities_Commission_logo-1627.webp"
          }
        },
        "tenant": "683f46937e7deb35fd6bca89",
        "url": "https://api.kenyaforexfirm.com/api/media/file/Jordan_Securities_Commission_logo.jpg",
        "thumbnailURL": null,
        "filename": "Jordan_Securities_Commission_logo.jpg",
        "mimeType": "image/jpeg",
        "filesize": 18721,
        "width": 180,
        "height": 180,
        "focalX": 50,
        "focalY": 50,
        "id": "6870e80bc1d9c8abe1522b16",
        "slug": "jordan-securities-commission-(jsc)",
        "caption": "jordan-securities-commission-(jsc)"
      },
      "id": "6870e7dec1d9c8abe1522af4",
      "leverage": {
        "maxLeverageOnAsset": [],
        "specialRequirements": [],
        "reference": [],
        "variableLeverage": true
      },
      "keyRegulation": [],
      "requirements": {
        "capitalRequirement": {
          "minimumCapital": 5000
        }
      },
      "regScoreRating": {
        "regulatorTrustScore": [],
        "scoreCard": []
      },
      "segregatedAccounts": true,
      "disputeResolution": true
    },
    {
      "createdAt": "2025-07-11T10:28:17.219Z",
      "updatedAt": "2025-07-11T10:29:13.741Z",
      "generateData": false,
      "name": "British Virgin Islands Financial Services Commission",
      "shortName": "FSC",
      "description": "The British Virgin Islands Financial Services Commission (BVI FSC) is the statutory body responsible for the regulation, supervision, and inspection of all non-bank financial services conducted in or from within the British Virgin Islands.",
      "country": "British Virgin Islands",
      "region": "Caribbean",
      "established": 2001,
      "keywords": [],
      "maxLeverage": "1:200",
      "minDepositRequirement": 50000,
      "website": "https://www.bvifsc.vg",
      "faqs": [],
      "trustScore": 70,
      "brokerRequirements": [],
      "investorProtection": [],
      "pubDate": "2025-07-11T10:22:44.778Z",
      "lastmod": "2025-07-11T10:22:44.778Z",
      "relatedLinks": [],
      "slug": "fsc-british-virgin-islands",
      "blog": {
        "blogTitle": "Kenya Forex Firm",
        "slug": "kenya-forex-firm",
        "tenant": "683f46937e7deb35fd6bca89",
        "githubBranch": "main",
        "id": "684042e245e28e4550cbd4e6"
      },
      "status": "draft",
      "tenant": "683f46937e7deb35fd6bca89",
      "standoutFeatures": [],
      "meta": {},
      "logo": {
        "createdAt": "2025-07-11T10:29:09.682Z",
        "updatedAt": "2025-07-11T10:29:09.682Z",
        "status": "published",
        "alt": "British Virgin Islands Financial Services Commission",
        "blog": "684042e245e28e4550cbd4e6",
        "sizes": {
          "small": {
            "width": 448,
            "height": 284,
            "mimeType": "image/webp",
            "filesize": 17414,
            "filename": "BritishVirginIslandsFinancial-services-commission-775.webp",
            "url": "https://ajira.pro.s3.us-east-1.amazonaws.com/media/683f46937e7deb35fd6bca89/images/small/BritishVirginIslandsFinancial-services-commission-775.webp"
          },
          "tablet": {
            "width": 448,
            "height": 284,
            "mimeType": "image/webp",
            "filesize": 17414,
            "filename": "BritishVirginIslandsFinancial-services-commission-1020.webp",
            "url": "https://ajira.pro.s3.us-east-1.amazonaws.com/media/683f46937e7deb35fd6bca89/images/tablet/BritishVirginIslandsFinancial-services-commission-1020.webp"
          },
          "large": {
            "width": 448,
            "height": 284,
            "mimeType": "image/webp",
            "filesize": 17414,
            "filename": "BritishVirginIslandsFinancial-services-commission-1627.webp",
            "url": "https://ajira.pro.s3.us-east-1.amazonaws.com/media/683f46937e7deb35fd6bca89/images/large/BritishVirginIslandsFinancial-services-commission-1627.webp"
          }
        },
        "tenant": "683f46937e7deb35fd6bca89",
        "url": "https://api.kenyaforexfirm.com/api/media/file/BritishVirginIslandsFinancial-services-commission.jpeg",
        "thumbnailURL": null,
        "filename": "BritishVirginIslandsFinancial-services-commission.jpeg",
        "mimeType": "image/jpeg",
        "filesize": 115564,
        "width": 448,
        "height": 284,
        "focalX": 50,
        "focalY": 50,
        "id": "6870e775c1d9c8abe1522ac8",
        "slug": "british-virgin-islands-financial-services-commission",
        "caption": "british-virgin-islands-financial-services-commission"
      },
      "id": "6870e741c1d9c8abe1522aa6",
      "leverage": {
        "maxLeverageOnAsset": [],
        "specialRequirements": [],
        "reference": [],
        "variableLeverage": true
      },
      "keyRegulation": [],
      "requirements": {
        "capitalRequirement": {
          "minimumCapital": 5000
        }
      },
      "regScoreRating": {
        "regulatorTrustScore": [],
        "scoreCard": []
      },
      "segregatedAccounts": true,
      "disputeResolution": true
    }
  ],
  "totalDocs": 15,
  "limit": 3,
  "totalPages": 5,
  "page": 1,
  "pagingCounter": 1,
  "hasPrevPage": false,
  "hasNextPage": true,
  "prevPage": null,
  "nextPage": 2
}
